…
Summarize within cities to get the total count of homicides and the
total count of unsolved homicides.

``` r
summary = homicide %>%
  group_by(city_state) %>%
  summarize(total_count = n(),
            unsolved_cases = sum(disposition %in% c("Closed without arrest", "Open/No arrest"))) %>% 
 filter(city_state != "Tulsa, AL") 
summary
```

    ## # A tibble: 50 × 3
    ##    city_state      total_count unsolved_cases
    ##    <chr>                 <int>          <int>
    ##  1 Albuquerque, NM         378            146
    ##  2 Atlanta, GA             973            373
    ##  3 Baltimore, MD          2827           1825
    ##  4 Baton Rouge, LA         424            196
    ##  5 Birmingham, AL          800            347
    ##  6 Boston, MA              614            310
    ##  7 Buffalo, NY             521            319
    ##  8 Charlotte, NC           687            206
    ##  9 Chicago, IL            5535           4073
    ## 10 Cincinnati, OH          694            309
    ## # … with 40 more rows
…
For all the cities

``` r
city_proptests = 
  purrr::map2_df(.x = summary$unsolved_cases,
            .y = summary$total_count,
            ~broom::tidy(prop.test(.x, .y))) %>%
  select(estimate, conf.low, conf.high) %>%
  mutate(city_state = summary$city_state) %>%
  relocate(city_state)
city_proptests
```

    ## # A tibble: 50 × 4
    ##    city_state      estimate conf.low conf.high
    ##    <chr>              <dbl>    <dbl>     <dbl>
    ##  1 Albuquerque, NM    0.386    0.337     0.438
    ##  2 Atlanta, GA        0.383    0.353     0.415
    ##  3 Baltimore, MD      0.646    0.628     0.663
    ##  4 Baton Rouge, LA    0.462    0.414     0.511
    ##  5 Birmingham, AL     0.434    0.399     0.469
    ##  6 Boston, MA         0.505    0.465     0.545
    ##  7 Buffalo, NY        0.612    0.569     0.654
    ##  8 Charlotte, NC      0.300    0.266     0.336
    ##  9 Chicago, IL        0.736    0.724     0.747
    ## 10 Cincinnati, OH     0.445    0.408     0.483
    ## # … with 40 more rows
…
mu = 0
sim_results_mu_0 = 
  expand_grid(mu = mu, 
              iter = 1:5000) %>%
  mutate(sample = map(.x = mu, ~rnorm(n, .x, sigma))) %>%
  mutate(estimate_df = map(.x = sample, 
                           ~broom::tidy(t.test(.x, 
                                               alternative = "two.sided",
                                               conf.level = 0.95)))) %>%
  unnest(estimate_df) %>%
  select(mu, iter, estimate, p.value)
sim_results_mu_0
```

    ## # A tibble: 5,000 × 4
    ##       mu  iter estimate p.value
    ##    <dbl> <int>    <dbl>   <dbl>
    ##  1     0     1  -0.234    0.766
    ##  2     0     2  -1.07     0.104
    ##  3     0     3   1.18     0.204
    ##  4     0     4   1.21     0.195
    ##  5     0     5  -0.0976   0.903
    ##  6     0     6   0.708    0.459
    ##  7     0     7   0.554    0.569
    ##  8     0     8  -0.0536   0.947
    ##  9     0     9  -0.194    0.798
    ## 10     0    10  -0.219    0.815
    ## # … with 4,990 more rows
…
``` r
sim_results_mu_1to6 = 
  expand_grid(mu = 1:6, 
              iter = 1:5000) %>%
  mutate(sample = map(.x = mu, ~rnorm(n, .x, sigma))) %>%
  mutate(estimate_df = map(.x = sample, 
                           ~broom::tidy(t.test(.x, 
                                               alternative = "two.sided",
                                               conf.level = 0.95)))) %>%
  unnest(estimate_df) %>%
  select(mu, iter, estimate, p.value)
sim_results_mu_1to6
```

    ## # A tibble: 30,000 × 4
    ##       mu  iter estimate p.value
    ##    <int> <int>    <dbl>   <dbl>
    ##  1     1     1  0.747    0.368 
    ##  2     1     2  1.41     0.0775
    ##  3     1     3  1.71     0.0406
    ##  4     1     4  0.520    0.631 
    ##  5     1     5 -0.174    0.864 
    ##  6     1     6 -0.365    0.646 
    ##  7     1     7 -0.462    0.612 
    ##  8     1     8 -0.00185  0.999 
    ##  9     1     9  1.66     0.0432
    ## 10     1    10  1.94     0.0835
    ## # … with 29,990 more rows
…
